^C:\USERS\RAFAE\ONEDRIVE\DOCUMENTOS\VISUAL STUDIO 2017\PROJECTS\TAREA8\TAREA8\MAIN.CPP
/c /ZI /nologo /W3 /WX- /diagnostics:classic /sdl /Od /Oy- /D _MBCS /Gm /EHsc /RTC1 /MDd /GS /fp:precise /Zc:wchar_t /Zc:forScope /Zc:inline /Fo"DEBUG\\" /Fd"DEBUG\VC141.PDB" /Gd /TP /analyze- C:\USERS\RAFAE\ONEDRIVE\DOCUMENTOS\VISUAL STUDIO 2017\PROJECTS\TAREA8\TAREA8\MAIN.CPP
^C:\USERS\RAFAE\ONEDRIVE\DOCUMENTOS\VISUAL STUDIO 2017\PROJECTS\TAREA8\TAREA8\TREE.CPP
/c /ZI /nologo /W3 /WX- /diagnostics:classic /sdl /Od /Oy- /D _MBCS /Gm /EHsc /RTC1 /MDd /GS /fp:precise /Zc:wchar_t /Zc:forScope /Zc:inline /Fo"DEBUG\\" /Fd"DEBUG\VC141.PDB" /Gd /TP /analyze- C:\USERS\RAFAE\ONEDRIVE\DOCUMENTOS\VISUAL STUDIO 2017\PROJECTS\TAREA8\TAREA8\TREE.CPP
