^C:\USERS\RAFAE\ONEDRIVE\DOCUMENTOS\VISUAL STUDIO 2017\PROJECTS\ARBOLON\ARBOLON\DEBUG\MAIN.OBJ|C:\USERS\RAFAE\ONEDRIVE\DOCUMENTOS\VISUAL STUDIO 2017\PROJECTS\ARBOLON\ARBOLON\DEBUG\TREE.OBJ
C:\USERS\RAFAE\ONEDRIVE\DOCUMENTOS\VISUAL STUDIO 2017\PROJECTS\ARBOLON\DEBUG\ARBOLON.EXE
C:\USERS\RAFAE\ONEDRIVE\DOCUMENTOS\VISUAL STUDIO 2017\PROJECTS\ARBOLON\DEBUG\ARBOLON.ILK
C:\USERS\RAFAE\ONEDRIVE\DOCUMENTOS\VISUAL STUDIO 2017\PROJECTS\ARBOLON\DEBUG\ARBOLON.PDB
